Analyzing time-series phonetic data
…
Lets take a look at the f0 data first.

F0

Data import

Now we first need to import the data. We are going to use the function read_delim() from readr package which is a part of tidyverse. Because the data is delimited by tab, we will specify the delim to \\t which means tab. By putting parentheses around the entire codes below, We are able to not only run the codes but also let R show the result, even when you saved the results to an R object.

(f0_data <- read_delim("data/tones_f0t.txt", delim = "\t", col_types = cols(
  Segment = col_factor() #The Segment column is the column that includes the information of different tones so it should be formatted to factors instead of characters as in read_delim() default. 
)) %>% #
  rename(Tone = Segment)) #Rename Segment column to Tone.

## # A tibble: 2,000 x 6
##    File_name Tone      t   t_m    F0   Int
##    <chr>     <fct> <dbl> <dbl> <dbl> <dbl>
##  1 GJF_si13  t13       1 0.016  88.1  63.3
##  2 GJF_si13  t13       2 0.048  87.4  65.6
##  3 GJF_si13  t13       3 0.079  87.7  67.0
##  4 GJF_si13  t13       4 0.111  88.7  68.0
##  5 GJF_si13  t13       5 0.143  89.6  68.8
##  6 GJF_si13  t13       6 0.174  NA    70.8
##  7 GJF_si13  t13       7 0.206  NA    74.0
##  8 GJF_si13  t13       8 0.238  NA    75.5
##  9 GJF_si13  t13       9 0.269 128.   75.9
## 10 GJF_si13  t13      10 0.301 128.   74.7
## #  with 1,990 more rows
…
To normalize the F0 values by using z-score normalization, we will need to modify the dataset first. To modify the dataset, we will use the function mutate() from dplyr package of tidyverse. mutate() creates new columns as you specify in the call. You can create new columns by using information from other columns. We will need to log-transform raw f0 data and z-score it for each speaker.

Since we do not have the column ready for speaker, and since the speaker information is saved in the column File_name in the format XXX_xxxx, we need to use the function separate() from tidyr package of tidyverse first.

(f0_data_1 <- separate(f0_data,
                    col = File_name,
                    into = c("Speaker", "Syllable"), #Separate them into two columns, one is named to Speaker, the other Syllable
                    sep = "_"))

## Warning: Expected 2 pieces. Additional pieces discarded in 210 rows [961, 962,
## 963, 964, 965, 966, 967, 968, 969, 970, 971, 972, 973, 974, 975, 976, 977, 978,
## 979, 980, ...].

## # A tibble: 2,000 x 7
##    Speaker Syllable Tone      t   t_m    F0   Int
##    <chr>   <chr>    <fct> <dbl> <dbl> <dbl> <dbl>
##  1 GJF     si13     t13       1 0.016  88.1  63.3
##  2 GJF     si13     t13       2 0.048  87.4  65.6
##  3 GJF     si13     t13       3 0.079  87.7  67.0
##  4 GJF     si13     t13       4 0.111  88.7  68.0
##  5 GJF     si13     t13       5 0.143  89.6  68.8
##  6 GJF     si13     t13       6 0.174  NA    70.8
##  7 GJF     si13     t13       7 0.206  NA    74.0
##  8 GJF     si13     t13       8 0.238  NA    75.5
##  9 GJF     si13     t13       9 0.269 128.   75.9
## 10 GJF     si13     t13      10 0.301 128.   74.7
## #  with 1,990 more rows

Then we can use mutate() to normalize f0 data.

(f0_data_norm <- mutate(group_by(f0_data_1, Speaker), #Group the data by Speaker so that the average will only be taken within each speaker's data.
                       F0_log = log(F0),
                       F0_norm = (F0_log - mean(F0_log, na.rm = T))/sd(F0_log, na.rm = T) #Use na.rm = T to get rid of NAs, otherwise R will not calculate the standard deviation.
                       ) %>%
  ungroup()) #After all are done, ungroup the data (this step is not obligatory, but I personally like to ungroup it.)

## # A tibble: 2,000 x 9
##    Speaker Syllable Tone      t   t_m    F0   Int F0_log F0_norm
##    <chr>   <chr>    <fct> <dbl> <dbl> <dbl> <dbl>  <dbl>   <dbl>
##  1 GJF     si13     t13       1 0.016  88.1  63.3   4.48  -0.871
##  2 GJF     si13     t13       2 0.048  87.4  65.6   4.47  -0.896
##  3 GJF     si13     t13       3 0.079  87.7  67.0   4.47  -0.885
##  4 GJF     si13     t13       4 0.111  88.7  68.0   4.49  -0.851
##  5 GJF     si13     t13       5 0.143  89.6  68.8   4.50  -0.820
##  6 GJF     si13     t13       6 0.174  NA    70.8  NA     NA    
##  7 GJF     si13     t13       7 0.206  NA    74.0  NA     NA    
##  8 GJF     si13     t13       8 0.238  NA    75.5  NA     NA    
##  9 GJF     si13     t13       9 0.269 128.   75.9   4.85   0.285
## 10 GJF     si13     t13      10 0.301 128.   74.7   4.85   0.291
## #  with 1,990 more rows
…
First of all, we still need to import the data into R. Since we have multiple files in the data folder, I wrote a function to read in multiple data files into R at once. You can check the detail of it by opening the script. Now lets load the function into the current working environment.

source("r_scripts/read_formant.R")

We then will create a list of files in the vowel folder under data folder.

file_list <- list.files(path = "data/vowel", pattern = "*.txt", full.names = T)

Then we can use the lapply() function to apply the function I wrote to import all the data by applying read_formant() function to each of the file in the vowel folder. (lapply basically means apply to list)

# Merge all data into one dataset
(formant <- lapply(file_list, read_formant) %>% reduce(bind_rows))

## # A tibble: 1,080 x 14
##    File_name Seg_num Seg   Tone      t   t_m    F1    F2    F3    F4   COG  sdev
##    <chr>     <chr>   <fct> <fct> <dbl> <dbl> <dbl> <dbl> <dbl> <dbl> <dbl> <dbl>
##  1 vowels.w 2       ai    t1        1 0.046   801  1493  2440     0 11595  5645
##  2 vowels.w 2       ai    t1        2 0.059   760  1519  2446     0 18584  4746
##  3 vowels.w 2       ai    t1        3 0.072   752  1478  2475     0    66   439
##  4 vowels.w 2       ai    t1        4 0.085   705  1439  2458     0    92   575
##  5 vowels.w 2       ai    t1        5 0.098   709  1494  2454     0    36   361
##  6 vowels.w 2       ai    t1        6 0.111   718  1533  2416     0    47   427
##  7 vowels.w 2       ai    t1        7 0.124   720  1502  2418     0    54   495
##  8 vowels.w 2       ai    t1        8 0.137   674  1542  2393     0    56   474
##  9 vowels.w 2       ai    t1        9 0.15    676  1605  2378     0   259   951
## 10 vowels.w 2       ai    t1       10 0.163   657  1679  2357     0   254   980
## #  with 1,070 more rows, and 2 more variables: skew <dbl>, kurt <dbl>
…
The other way is to transform the data and make all formant data in one column: Hz.

(formant_2 <- formant %>% 
  select(-F3, -F4, -COG, -sdev, -skew, -kurt) %>% # Get rid of F3, F4, and spectral data.
  pivot_longer(cols = c("F1", "F2"), names_to = "Formant", values_to = "Hz"))

## # A tibble: 2,160 x 8
##    File_name  Seg_num Seg   Tone      t   t_m Formant    Hz
##    <chr>      <chr>   <fct> <fct> <dbl> <dbl> <chr>   <dbl>
##  1 vowels.wav 2       ai    t1        1 0.046 F1        801
##  2 vowels.wav 2       ai    t1        1 0.046 F2       1493
##  3 vowels.wav 2       ai    t1        2 0.059 F1        760
##  4 vowels.wav 2       ai    t1        2 0.059 F2       1519
##  5 vowels.wav 2       ai    t1        3 0.072 F1        752
##  6 vowels.wav 2       ai    t1        3 0.072 F2       1478
##  7 vowels.wav 2       ai    t1        4 0.085 F1        705
##  8 vowels.wav 2       ai    t1        4 0.085 F2       1439
##  9 vowels.wav 2       ai    t1        5 0.098 F1        709
## 10 vowels.wav 2       ai    t1        5 0.098 F2       1494
## #  with 2,150 more rows
…
